%!PS-Adobe-3.0 EPSF-3.0
%%Creator: http://www.qrmania.ru
%%Title: QR code created by http://www.qrmania.ru
%%CreationDate: Tue Apr  7 07:19:02 2015
%%BoundingBox: 0 10 370 380
%%DocumentData: Clean7Bit
%%EndComments
%%BeginProlog
%%EndProlog
%%BeginSetup
%%EndSetup

0.0 0.0 0.0 setrgbcolor

{ ucache 
0  10  370  380 setbbox 

20 30 moveto
30 30 lineto
40 30 lineto
50 30 lineto
60 30 lineto
70 30 lineto
80 30 lineto
90 30 lineto
90 40 lineto
90 50 lineto
90 60 lineto
90 70 lineto
90 80 lineto
90 90 lineto
90 100 lineto
80 100 lineto
70 100 lineto
60 100 lineto
50 100 lineto
40 100 lineto
30 100 lineto
20 100 lineto
20 90 lineto
20 80 lineto
20 70 lineto
20 60 lineto
20 50 lineto
20 40 lineto
20 30 lineto

30 40 moveto
30 50 lineto
30 60 lineto
30 70 lineto
30 80 lineto
30 90 lineto
40 90 lineto
50 90 lineto
60 90 lineto
70 90 lineto
80 90 lineto
80 80 lineto
80 70 lineto
80 60 lineto
80 50 lineto
80 40 lineto
70 40 lineto
60 40 lineto
50 40 lineto
40 40 lineto
30 40 lineto

closepath
} ufill

{ ucache 
0  10  370  380 setbbox 

20 110 moveto
30 110 lineto
40 110 lineto
40 120 lineto
30 120 lineto
20 120 lineto
20 110 lineto

closepath
} ufill

{ ucache 
0  10  370  380 setbbox 

20 130 moveto
30 130 lineto
40 130 lineto
40 140 lineto
30 140 lineto
20 140 lineto
20 130 lineto

closepath
} ufill

{ ucache 
0  10  370  380 setbbox 

20 150 moveto
30 150 lineto
40 150 lineto
50 150 lineto
50 160 lineto
50 170 lineto
60 170 lineto
60 180 lineto
50 180 lineto
40 180 lineto
40 190 lineto
30 190 lineto
30 180 lineto
30 170 lineto
30 160 lineto
20 160 lineto
20 150 lineto

closepath
} ufill

{ ucache 
0  10  370  380 setbbox 

20 190 moveto
30 190 lineto
30 200 lineto
20 200 lineto
20 190 lineto

closepath
} ufill

{ ucache 
0  10  370  380 setbbox 

20 230 moveto
30 230 lineto
40 230 lineto
40 240 lineto
30 240 lineto
20 240 lineto
20 230 lineto

closepath
} ufill

{ ucache 
0  10  370  380 setbbox 

20 290 moveto
30 290 lineto
40 290 lineto
50 290 lineto
60 290 lineto
70 290 lineto
80 290 lineto
90 290 lineto
90 300 lineto
90 310 lineto
90 320 lineto
90 330 lineto
90 340 lineto
90 350 lineto
90 360 lineto
80 360 lineto
70 360 lineto
60 360 lineto
50 360 lineto
40 360 lineto
30 360 lineto
20 360 lineto
20 350 lineto
20 340 lineto
20 330 lineto
20 320 lineto
20 310 lineto
20 300 lineto
20 290 lineto

30 300 moveto
30 310 lineto
30 320 lineto
30 330 lineto
30 340 lineto
30 350 lineto
40 350 lineto
50 350 lineto
60 350 lineto
70 350 lineto
80 350 lineto
80 340 lineto
80 330 lineto
80 320 lineto
80 310 lineto
80 300 lineto
70 300 lineto
60 300 lineto
50 300 lineto
40 300 lineto
30 300 lineto

closepath
} ufill

{ ucache 
0  10  370  380 setbbox 

30 200 moveto
40 200 lineto
40 190 lineto
50 190 lineto
60 190 lineto
60 200 lineto
50 200 lineto
50 210 lineto
40 210 lineto
30 210 lineto
30 200 lineto

closepath
} ufill

{ ucache 
0  10  370  380 setbbox 

30 270 moveto
40 270 lineto
50 270 lineto
50 280 lineto
40 280 lineto
30 280 lineto
30 270 lineto

closepath
} ufill

{ ucache 
0  10  370  380 setbbox 

40 50 moveto
50 50 lineto
60 50 lineto
70 50 lineto
70 60 lineto
70 70 lineto
70 80 lineto
60 80 lineto
50 80 lineto
40 80 lineto
40 70 lineto
40 60 lineto
40 50 lineto

closepath
} ufill

{ ucache 
0  10  370  380 setbbox 

40 120 moveto
50 120 lineto
50 130 lineto
40 130 lineto
40 120 lineto

closepath
} ufill

{ ucache 
0  10  370  380 setbbox 

40 220 moveto
50 220 lineto
60 220 lineto
60 210 lineto
70 210 lineto
70 220 lineto
80 220 lineto
80 230 lineto
70 230 lineto
70 240 lineto
60 240 lineto
50 240 lineto
50 230 lineto
40 230 lineto
40 220 lineto

closepath
} ufill

{ ucache 
0  10  370  380 setbbox 

40 250 moveto
50 250 lineto
60 250 lineto
60 260 lineto
60 270 lineto
50 270 lineto
50 260 lineto
40 260 lineto
40 250 lineto

closepath
} ufill

{ ucache 
0  10  370  380 setbbox 

40 310 moveto
50 310 lineto
60 310 lineto
70 310 lineto
70 320 lineto
70 330 lineto
70 340 lineto
60 340 lineto
50 340 lineto
40 340 lineto
40 330 lineto
40 320 lineto
40 310 lineto

closepath
} ufill

{ ucache 
0  10  370  380 setbbox 

50 140 moveto
60 140 lineto
60 130 lineto
60 120 lineto
70 120 lineto
80 120 lineto
80 130 lineto
70 130 lineto
70 140 lineto
70 150 lineto
60 150 lineto
50 150 lineto
50 140 lineto

closepath
} ufill

{ ucache 
0  10  370  380 setbbox 

60 180 moveto
70 180 lineto
80 180 lineto
80 190 lineto
70 190 lineto
60 190 lineto
60 180 lineto

closepath
} ufill

{ ucache 
0  10  370  380 setbbox 

70 150 moveto
80 150 lineto
90 150 lineto
90 140 lineto
100 140 lineto
110 140 lineto
110 130 lineto
120 130 lineto
120 140 lineto
130 140 lineto
130 150 lineto
130 160 lineto
140 160 lineto
140 170 lineto
130 170 lineto
120 170 lineto
110 170 lineto
110 160 lineto
120 160 lineto
120 150 lineto
110 150 lineto
100 150 lineto
100 160 lineto
90 160 lineto
80 160 lineto
70 160 lineto
70 150 lineto

closepath
} ufill

{ ucache 
0  10  370  380 setbbox 

70 240 moveto
80 240 lineto
80 250 lineto
90 250 lineto
90 260 lineto
80 260 lineto
80 270 lineto
70 270 lineto
70 260 lineto
70 250 lineto
70 240 lineto

closepath
} ufill

{ ucache 
0  10  370  380 setbbox 

80 110 moveto
90 110 lineto
100 110 lineto
100 100 lineto
110 100 lineto
110 110 lineto
110 120 lineto
110 130 lineto
100 130 lineto
90 130 lineto
90 120 lineto
80 120 lineto
80 110 lineto

closepath
} ufill

{ ucache 
0  10  370  380 setbbox 

80 130 moveto
90 130 lineto
90 140 lineto
80 140 lineto
80 130 lineto

closepath
} ufill

{ ucache 
0  10  370  380 setbbox 

80 170 moveto
90 170 lineto
100 170 lineto
110 170 lineto
110 180 lineto
120 180 lineto
130 180 lineto
130 190 lineto
140 190 lineto
140 200 lineto
150 200 lineto
150 190 lineto
150 180 lineto
140 180 lineto
140 170 lineto
150 170 lineto
160 170 lineto
170 170 lineto
170 180 lineto
160 180 lineto
160 190 lineto
170 190 lineto
170 200 lineto
160 200 lineto
160 210 lineto
160 220 lineto
150 220 lineto
150 230 lineto
150 240 lineto
160 240 lineto
170 240 lineto
170 250 lineto
170 260 lineto
160 260 lineto
150 260 lineto
140 260 lineto
130 260 lineto
130 250 lineto
130 240 lineto
140 240 lineto
140 230 lineto
140 220 lineto
140 210 lineto
130 210 lineto
130 200 lineto
120 200 lineto
120 210 lineto
110 210 lineto
110 200 lineto
110 190 lineto
100 190 lineto
100 200 lineto
100 210 lineto
100 220 lineto
100 230 lineto
110 230 lineto
110 240 lineto
100 240 lineto
100 250 lineto
90 250 lineto
90 240 lineto
80 240 lineto
80 230 lineto
90 230 lineto
90 220 lineto
80 220 lineto
80 210 lineto
90 210 lineto
90 200 lineto
80 200 lineto
80 190 lineto
90 190 lineto
90 180 lineto
80 180 lineto
80 170 lineto

closepath
} ufill

{ ucache 
0  10  370  380 setbbox 

80 270 moveto
90 270 lineto
90 280 lineto
80 280 lineto
80 270 lineto

closepath
} ufill

{ ucache 
0  10  370  380 setbbox 

90 260 moveto
100 260 lineto
100 250 lineto
110 250 lineto
120 250 lineto
120 260 lineto
130 260 lineto
130 270 lineto
120 270 lineto
110 270 lineto
100 270 lineto
90 270 lineto
90 260 lineto

closepath
} ufill

{ ucache 
0  10  370  380 setbbox 

100 40 moveto
110 40 lineto
120 40 lineto
120 50 lineto
120 60 lineto
130 60 lineto
130 50 lineto
140 50 lineto
140 60 lineto
140 70 lineto
150 70 lineto
150 60 lineto
150 50 lineto
160 50 lineto
160 60 lineto
170 60 lineto
170 50 lineto
170 40 lineto
170 30 lineto
180 30 lineto
180 40 lineto
190 40 lineto
190 50 lineto
190 60 lineto
200 60 lineto
200 70 lineto
200 80 lineto
200 90 lineto
190 90 lineto
190 80 lineto
180 80 lineto
170 80 lineto
170 70 lineto
160 70 lineto
160 80 lineto
170 80 lineto
170 90 lineto
160 90 lineto
150 90 lineto
150 80 lineto
140 80 lineto
130 80 lineto
120 80 lineto
110 80 lineto
110 70 lineto
110 60 lineto
100 60 lineto
100 50 lineto
100 40 lineto

closepath
} ufill

{ ucache 
0  10  370  380 setbbox 

100 280 moveto
110 280 lineto
120 280 lineto
120 290 lineto
110 290 lineto
110 300 lineto
110 310 lineto
100 310 lineto
100 300 lineto
100 290 lineto
100 280 lineto

closepath
} ufill

{ ucache 
0  10  370  380 setbbox 

100 320 moveto
110 320 lineto
110 330 lineto
100 330 lineto
100 320 lineto

closepath
} ufill

{ ucache 
0  10  370  380 setbbox 

110 310 moveto
120 310 lineto
130 310 lineto
130 320 lineto
130 330 lineto
120 330 lineto
120 320 lineto
110 320 lineto
110 310 lineto

closepath
} ufill

{ ucache 
0  10  370  380 setbbox 

110 340 moveto
120 340 lineto
130 340 lineto
130 350 lineto
120 350 lineto
120 360 lineto
110 360 lineto
110 350 lineto
110 340 lineto

closepath
} ufill

{ ucache 
0  10  370  380 setbbox 

120 30 moveto
130 30 lineto
140 30 lineto
150 30 lineto
160 30 lineto
160 40 lineto
150 40 lineto
150 50 lineto
140 50 lineto
140 40 lineto
130 40 lineto
120 40 lineto
120 30 lineto

closepath
} ufill

{ ucache 
0  10  370  380 setbbox 

120 90 moveto
130 90 lineto
130 100 lineto
140 100 lineto
150 100 lineto
160 100 lineto
160 110 lineto
170 110 lineto
170 100 lineto
170 90 lineto
180 90 lineto
190 90 lineto
190 100 lineto
180 100 lineto
180 110 lineto
180 120 lineto
180 130 lineto
170 130 lineto
160 130 lineto
160 120 lineto
150 120 lineto
140 120 lineto
140 130 lineto
130 130 lineto
120 130 lineto
120 120 lineto
130 120 lineto
130 110 lineto
120 110 lineto
120 100 lineto
120 90 lineto

closepath
} ufill

{ ucache 
0  10  370  380 setbbox 

120 210 moveto
130 210 lineto
130 220 lineto
120 220 lineto
120 210 lineto

closepath
} ufill

{ ucache 
0  10  370  380 setbbox 

120 230 moveto
130 230 lineto
130 240 lineto
120 240 lineto
120 230 lineto

closepath
} ufill

{ ucache 
0  10  370  380 setbbox 

120 290 moveto
130 290 lineto
130 300 lineto
120 300 lineto
120 290 lineto

closepath
} ufill

{ ucache 
0  10  370  380 setbbox 

130 280 moveto
140 280 lineto
140 290 lineto
130 290 lineto
130 280 lineto

closepath
} ufill

{ ucache 
0  10  370  380 setbbox 

130 350 moveto
140 350 lineto
150 350 lineto
150 340 lineto
150 330 lineto
160 330 lineto
170 330 lineto
170 320 lineto
160 320 lineto
150 320 lineto
140 320 lineto
140 310 lineto
140 300 lineto
140 290 lineto
150 290 lineto
150 300 lineto
150 310 lineto
160 310 lineto
160 300 lineto
160 290 lineto
150 290 lineto
150 280 lineto
160 280 lineto
170 280 lineto
170 290 lineto
170 300 lineto
170 310 lineto
180 310 lineto
180 320 lineto
190 320 lineto
190 330 lineto
180 330 lineto
180 340 lineto
190 340 lineto
200 340 lineto
200 330 lineto
200 320 lineto
190 320 lineto
190 310 lineto
200 310 lineto
210 310 lineto
220 310 lineto
230 310 lineto
230 300 lineto
240 300 lineto
240 310 lineto
240 320 lineto
230 320 lineto
220 320 lineto
210 320 lineto
210 330 lineto
210 340 lineto
210 350 lineto
210 360 lineto
200 360 lineto
200 350 lineto
190 350 lineto
190 360 lineto
180 360 lineto
170 360 lineto
160 360 lineto
150 360 lineto
140 360 lineto
130 360 lineto
130 350 lineto

160 350 moveto
170 350 lineto
170 340 lineto
160 340 lineto
160 350 lineto

closepath
} ufill

{ ucache 
0  10  370  380 setbbox 

140 150 moveto
150 150 lineto
150 160 lineto
140 160 lineto
140 150 lineto

closepath
} ufill

{ ucache 
0  10  370  380 setbbox 

140 270 moveto
150 270 lineto
150 280 lineto
140 280 lineto
140 270 lineto

closepath
} ufill

{ ucache 
0  10  370  380 setbbox 

150 140 moveto
160 140 lineto
160 150 lineto
150 150 lineto
150 140 lineto

closepath
} ufill

{ ucache 
0  10  370  380 setbbox 

170 160 moveto
180 160 lineto
180 170 lineto
170 170 lineto
170 160 lineto

closepath
} ufill

{ ucache 
0  10  370  380 setbbox 

170 200 moveto
180 200 lineto
180 210 lineto
190 210 lineto
190 220 lineto
190 230 lineto
200 230 lineto
200 220 lineto
200 210 lineto
190 210 lineto
190 200 lineto
200 200 lineto
210 200 lineto
210 210 lineto
220 210 lineto
220 200 lineto
230 200 lineto
230 210 lineto
230 220 lineto
220 220 lineto
210 220 lineto
210 230 lineto
220 230 lineto
230 230 lineto
230 220 lineto
240 220 lineto
240 210 lineto
240 200 lineto
250 200 lineto
260 200 lineto
260 210 lineto
250 210 lineto
250 220 lineto
250 230 lineto
240 230 lineto
240 240 lineto
230 240 lineto
220 240 lineto
220 250 lineto
230 250 lineto
240 250 lineto
250 250 lineto
250 240 lineto
250 230 lineto
260 230 lineto
260 240 lineto
260 250 lineto
270 250 lineto
280 250 lineto
280 260 lineto
270 260 lineto
270 270 lineto
260 270 lineto
250 270 lineto
250 260 lineto
240 260 lineto
240 270 lineto
230 270 lineto
230 280 lineto
220 280 lineto
210 280 lineto
200 280 lineto
200 270 lineto
200 260 lineto
190 260 lineto
190 250 lineto
200 250 lineto
200 240 lineto
190 240 lineto
190 250 lineto
180 250 lineto
180 240 lineto
180 230 lineto
170 230 lineto
170 220 lineto
170 210 lineto
170 200 lineto

closepath
} ufill

{ ucache 
0  10  370  380 setbbox 

170 260 moveto
180 260 lineto
180 270 lineto
180 280 lineto
170 280 lineto
170 270 lineto
170 260 lineto

closepath
} ufill

{ ucache 
0  10  370  380 setbbox 

180 130 moveto
190 130 lineto
190 140 lineto
200 140 lineto
200 150 lineto
190 150 lineto
190 160 lineto
180 160 lineto
180 150 lineto
180 140 lineto
180 130 lineto

closepath
} ufill

{ ucache 
0  10  370  380 setbbox 

180 180 moveto
190 180 lineto
200 180 lineto
200 190 lineto
190 190 lineto
190 200 lineto
180 200 lineto
180 190 lineto
180 180 lineto

closepath
} ufill

{ ucache 
0  10  370  380 setbbox 

180 280 moveto
190 280 lineto
190 290 lineto
190 300 lineto
180 300 lineto
180 290 lineto
180 280 lineto

closepath
} ufill

{ ucache 
0  10  370  380 setbbox 

190 100 moveto
200 100 lineto
200 110 lineto
200 120 lineto
210 120 lineto
220 120 lineto
220 130 lineto
220 140 lineto
210 140 lineto
210 130 lineto
200 130 lineto
190 130 lineto
190 120 lineto
190 110 lineto
190 100 lineto

closepath
} ufill

{ ucache 
0  10  370  380 setbbox 

190 160 moveto
200 160 lineto
200 150 lineto
210 150 lineto
210 160 lineto
220 160 lineto
230 160 lineto
230 150 lineto
240 150 lineto
240 140 lineto
250 140 lineto
250 150 lineto
260 150 lineto
260 160 lineto
250 160 lineto
240 160 lineto
240 170 lineto
240 180 lineto
240 190 lineto
230 190 lineto
220 190 lineto
210 190 lineto
210 180 lineto
210 170 lineto
200 170 lineto
190 170 lineto
190 160 lineto

220 170 moveto
220 180 lineto
230 180 lineto
230 170 lineto
220 170 lineto

closepath
} ufill

{ ucache 
0  10  370  380 setbbox 

200 90 moveto
210 90 lineto
210 80 lineto
220 80 lineto
230 80 lineto
230 90 lineto
240 90 lineto
240 100 lineto
250 100 lineto
260 100 lineto
260 90 lineto
250 90 lineto
240 90 lineto
240 80 lineto
230 80 lineto
230 70 lineto
240 70 lineto
240 60 lineto
250 60 lineto
250 50 lineto
250 40 lineto
260 40 lineto
260 50 lineto
260 60 lineto
260 70 lineto
270 70 lineto
270 60 lineto
270 50 lineto
270 40 lineto
280 40 lineto
280 30 lineto
290 30 lineto
300 30 lineto
310 30 lineto
310 40 lineto
320 40 lineto
320 30 lineto
330 30 lineto
330 40 lineto
330 50 lineto
320 50 lineto
310 50 lineto
310 60 lineto
310 70 lineto
310 80 lineto
320 80 lineto
320 90 lineto
330 90 lineto
330 80 lineto
340 80 lineto
340 70 lineto
350 70 lineto
350 80 lineto
350 90 lineto
340 90 lineto
340 100 lineto
340 110 lineto
330 110 lineto
330 100 lineto
320 100 lineto
310 100 lineto
310 110 lineto
320 110 lineto
330 110 lineto
330 120 lineto
320 120 lineto
310 120 lineto
300 120 lineto
300 130 lineto
290 130 lineto
290 140 lineto
280 140 lineto
280 150 lineto
280 160 lineto
270 160 lineto
270 150 lineto
270 140 lineto
270 130 lineto
280 130 lineto
280 120 lineto
270 120 lineto
260 120 lineto
260 110 lineto
250 110 lineto
240 110 lineto
230 110 lineto
230 120 lineto
220 120 lineto
220 110 lineto
210 110 lineto
210 100 lineto
200 100 lineto
200 90 lineto

270 100 moveto
270 110 lineto
280 110 lineto
290 110 lineto
300 110 lineto
300 100 lineto
300 90 lineto
300 80 lineto
290 80 lineto
280 80 lineto
270 80 lineto
270 90 lineto
270 100 lineto

280 70 moveto
290 70 lineto
290 60 lineto
290 50 lineto
280 50 lineto
280 60 lineto
280 70 lineto

closepath
} ufill

{ ucache 
0  10  370  380 setbbox 

200 290 moveto
210 290 lineto
210 300 lineto
200 300 lineto
200 290 lineto

closepath
} ufill

{ ucache 
0  10  370  380 setbbox 

210 50 moveto
220 50 lineto
220 60 lineto
210 60 lineto
210 50 lineto

closepath
} ufill

{ ucache 
0  10  370  380 setbbox 

220 30 moveto
230 30 lineto
230 40 lineto
220 40 lineto
220 30 lineto

closepath
} ufill

{ ucache 
0  10  370  380 setbbox 

220 60 moveto
230 60 lineto
230 70 lineto
220 70 lineto
220 60 lineto

closepath
} ufill

{ ucache 
0  10  370  380 setbbox 

220 140 moveto
230 140 lineto
230 150 lineto
220 150 lineto
220 140 lineto

closepath
} ufill

{ ucache 
0  10  370  380 setbbox 

220 290 moveto
230 290 lineto
230 300 lineto
220 300 lineto
220 290 lineto

closepath
} ufill

{ ucache 
0  10  370  380 setbbox 

220 340 moveto
230 340 lineto
240 340 lineto
240 350 lineto
230 350 lineto
230 360 lineto
220 360 lineto
220 350 lineto
220 340 lineto

closepath
} ufill

{ ucache 
0  10  370  380 setbbox 

230 50 moveto
240 50 lineto
240 60 lineto
230 60 lineto
230 50 lineto

closepath
} ufill

{ ucache 
0  10  370  380 setbbox 

230 130 moveto
240 130 lineto
240 140 lineto
230 140 lineto
230 130 lineto

closepath
} ufill

{ ucache 
0  10  370  380 setbbox 

240 30 moveto
250 30 lineto
250 40 lineto
240 40 lineto
240 30 lineto

closepath
} ufill

{ ucache 
0  10  370  380 setbbox 

240 120 moveto
250 120 lineto
260 120 lineto
260 130 lineto
260 140 lineto
250 140 lineto
250 130 lineto
240 130 lineto
240 120 lineto

closepath
} ufill

{ ucache 
0  10  370  380 setbbox 

240 280 moveto
250 280 lineto
260 280 lineto
260 290 lineto
250 290 lineto
250 300 lineto
240 300 lineto
240 290 lineto
240 280 lineto

closepath
} ufill

{ ucache 
0  10  370  380 setbbox 

240 320 moveto
250 320 lineto
250 330 lineto
240 330 lineto
240 320 lineto

closepath
} ufill

{ ucache 
0  10  370  380 setbbox 

240 350 moveto
250 350 lineto
250 360 lineto
240 360 lineto
240 350 lineto

closepath
} ufill

{ ucache 
0  10  370  380 setbbox 

250 170 moveto
260 170 lineto
260 160 lineto
270 160 lineto
270 170 lineto
280 170 lineto
280 180 lineto
270 180 lineto
270 190 lineto
270 200 lineto
260 200 lineto
260 190 lineto
250 190 lineto
250 180 lineto
250 170 lineto

closepath
} ufill

{ ucache 
0  10  370  380 setbbox 

250 300 moveto
260 300 lineto
260 290 lineto
270 290 lineto
270 300 lineto
270 310 lineto
270 320 lineto
260 320 lineto
250 320 lineto
250 310 lineto
250 300 lineto

closepath
} ufill

{ ucache 
0  10  370  380 setbbox 

250 330 moveto
260 330 lineto
260 340 lineto
250 340 lineto
250 330 lineto

closepath
} ufill

{ ucache 
0  10  370  380 setbbox 

260 30 moveto
270 30 lineto
270 40 lineto
260 40 lineto
260 30 lineto

closepath
} ufill

{ ucache 
0  10  370  380 setbbox 

260 220 moveto
270 220 lineto
280 220 lineto
280 230 lineto
270 230 lineto
260 230 lineto
260 220 lineto

closepath
} ufill

{ ucache 
0  10  370  380 setbbox 

260 340 moveto
270 340 lineto
270 350 lineto
260 350 lineto
260 340 lineto

closepath
} ufill

{ ucache 
0  10  370  380 setbbox 

270 200 moveto
280 200 lineto
280 190 lineto
280 180 lineto
290 180 lineto
290 190 lineto
300 190 lineto
300 200 lineto
290 200 lineto
290 210 lineto
280 210 lineto
270 210 lineto
270 200 lineto

closepath
} ufill

{ ucache 
0  10  370  380 setbbox 

280 90 moveto
290 90 lineto
290 100 lineto
280 100 lineto
280 90 lineto

closepath
} ufill

{ ucache 
0  10  370  380 setbbox 

280 230 moveto
290 230 lineto
290 240 lineto
300 240 lineto
300 230 lineto
300 220 lineto
310 220 lineto
310 210 lineto
310 200 lineto
310 190 lineto
310 180 lineto
310 170 lineto
300 170 lineto
300 160 lineto
300 150 lineto
290 150 lineto
290 140 lineto
300 140 lineto
310 140 lineto
310 150 lineto
310 160 lineto
320 160 lineto
320 170 lineto
330 170 lineto
330 160 lineto
330 150 lineto
340 150 lineto
340 160 lineto
340 170 lineto
340 180 lineto
330 180 lineto
320 180 lineto
320 190 lineto
330 190 lineto
340 190 lineto
340 200 lineto
330 200 lineto
330 210 lineto
330 220 lineto
320 220 lineto
320 230 lineto
310 230 lineto
310 240 lineto
320 240 lineto
320 250 lineto
330 250 lineto
330 260 lineto
320 260 lineto
320 270 lineto
320 280 lineto
310 280 lineto
310 270 lineto
310 260 lineto
310 250 lineto
300 250 lineto
290 250 lineto
280 250 lineto
280 240 lineto
280 230 lineto

closepath
} ufill

{ ucache 
0  10  370  380 setbbox 

280 260 moveto
290 260 lineto
290 270 lineto
300 270 lineto
300 280 lineto
290 280 lineto
280 280 lineto
280 270 lineto
280 260 lineto

closepath
} ufill

{ ucache 
0  10  370  380 setbbox 

280 290 moveto
290 290 lineto
300 290 lineto
310 290 lineto
320 290 lineto
330 290 lineto
340 290 lineto
350 290 lineto
350 300 lineto
350 310 lineto
350 320 lineto
350 330 lineto
350 340 lineto
350 350 lineto
350 360 lineto
340 360 lineto
330 360 lineto
320 360 lineto
310 360 lineto
300 360 lineto
290 360 lineto
280 360 lineto
280 350 lineto
280 340 lineto
280 330 lineto
280 320 lineto
280 310 lineto
280 300 lineto
280 290 lineto

290 300 moveto
290 310 lineto
290 320 lineto
290 330 lineto
290 340 lineto
290 350 lineto
300 350 lineto
310 350 lineto
320 350 lineto
330 350 lineto
340 350 lineto
340 340 lineto
340 330 lineto
340 320 lineto
340 310 lineto
340 300 lineto
330 300 lineto
320 300 lineto
310 300 lineto
300 300 lineto
290 300 lineto

closepath
} ufill

{ ucache 
0  10  370  380 setbbox 

290 170 moveto
300 170 lineto
300 180 lineto
290 180 lineto
290 170 lineto

closepath
} ufill

{ ucache 
0  10  370  380 setbbox 

300 310 moveto
310 310 lineto
320 310 lineto
330 310 lineto
330 320 lineto
330 330 lineto
330 340 lineto
320 340 lineto
310 340 lineto
300 340 lineto
300 330 lineto
300 320 lineto
300 310 lineto

closepath
} ufill

{ ucache 
0  10  370  380 setbbox 

320 130 moveto
330 130 lineto
330 140 lineto
330 150 lineto
320 150 lineto
320 140 lineto
320 130 lineto

closepath
} ufill

{ ucache 
0  10  370  380 setbbox 

330 50 moveto
340 50 lineto
350 50 lineto
350 60 lineto
340 60 lineto
340 70 lineto
330 70 lineto
330 60 lineto
330 50 lineto

closepath
} ufill

{ ucache 
0  10  370  380 setbbox 

330 120 moveto
340 120 lineto
340 130 lineto
330 130 lineto
330 120 lineto

closepath
} ufill

{ ucache 
0  10  370  380 setbbox 

330 220 moveto
340 220 lineto
340 210 lineto
350 210 lineto
350 220 lineto
350 230 lineto
350 240 lineto
340 240 lineto
340 250 lineto
330 250 lineto
330 240 lineto
330 230 lineto
330 220 lineto

closepath
} ufill

{ ucache 
0  10  370  380 setbbox 

330 260 moveto
340 260 lineto
340 270 lineto
330 270 lineto
330 260 lineto

closepath
} ufill

{ ucache 
0  10  370  380 setbbox 

340 30 moveto
350 30 lineto
350 40 lineto
340 40 lineto
340 30 lineto

closepath
} ufill

{ ucache 
0  10  370  380 setbbox 

340 110 moveto
350 110 lineto
350 120 lineto
340 120 lineto
340 110 lineto

closepath
} ufill

{ ucache 
0  10  370  380 setbbox 

340 130 moveto
350 130 lineto
350 140 lineto
350 150 lineto
340 150 lineto
340 140 lineto
340 130 lineto

closepath
} ufill

{ ucache 
0  10  370  380 setbbox 

340 180 moveto
350 180 lineto
350 190 lineto
340 190 lineto
340 180 lineto

closepath
} ufill

{ ucache 
0  10  370  380 setbbox 

340 250 moveto
350 250 lineto
350 260 lineto
340 260 lineto
340 250 lineto

closepath
} ufill

%%Trailer
%%EOF
